OPERATOR_NAME,WORK_ORDER-ID,PART_ID,PART,INSPECTION_RESULTS,FLAG_MESSAGE,IS_INSPECTION_FLAGGED,CREADTED_AT,TIME_STAMP
vinayaka,WORK123,1,plug,"{'EC': 10, 'TC': 8, 'Defects': [], 'Features_Missing': [], 'status': 'Accepted'}",,,2023-09-29 14:16:26,2023-09-29 19:46:26
vinayaka,WORK123,1,plug,"{'EC': 10, 'TC': 8, 'Defects': [], 'Features_Missing': [], 'status': 'Accepted'}",,,2023-09-29 14:17:07,2023-09-29 19:47:07
vinayaka,WORK123,1,plug,"{'EC': 10, 'TC': 8, 'Defects': [], 'Features_Missing': [], 'status': 'Accepted'}",,,2023-09-29 14:17:18,2023-09-29 19:47:18
vinayaka,WORK123,1,plug,"{'EC': 10, 'TC': 8, 'Defects': [], 'Features_Missing': [], 'status': 'Accepted'}",,,2023-09-29 14:17:33,2023-09-29 19:47:33
,1,1,Receptacle_Socket,"{'EC': 10, 'TC': 8, 'Defects': [], 'Features_Missing': [], 'status': 'Accepted'}",,,2023-09-29 14:14:04,2023-09-29 19:44:04
,1,1,Receptacle_Socket,"{'EC': 10, 'TC': 8, 'Defects': [], 'Features_Missing': [], 'status': 'Accepted'}",,,2023-09-29 14:14:12,2023-09-29 19:44:12
,1,1,Circular_Plug_Pin,"{'EC': 10, 'TC': 8, 'Defects': [], 'Features_Missing': ['Thermoset Character Missing'], 'status': 'Rejected'}",a,True,2023-09-29 09:32:32,2023-09-29 15:02:32
,1,1,Circular_Plug_Pin,"{'EC': 10, 'TC': 8, 'Defects': [], 'Features_Missing': ['Thermoset Character Missing'], 'status': 'Rejected'}",j,True,2023-09-29 09:35:03,2023-09-29 15:05:03
,1,1,Circular_Plug_Pin,"{'EC': 10, 'TC': 8, 'Defects': [], 'Features_Missing': ['Thermoset Character Missing'], 'status': 'Rejected'}",,,2023-09-29 09:43:30,2023-09-29 15:13:30
,1,1,Circular_Plug_Pin,"{'EC': 10, 'TC': 8, 'Defects': [], 'Features_Missing': ['Thermoset Character Missing'], 'status': 'Rejected'}",,,2023-09-29 09:50:39,2023-09-29 15:20:39
,1,1245,Receptacle_Socket,"{'EC': 10, 'TC': 8, 'Defects': [], 'Features_Missing': ['Thermoset Character Missing'], 'status': 'Rejected'}",,,2023-09-29 14:13:18,2023-09-29 19:43:18
,1,1,Circular_Plug_Pin,"{'EC': 10, 'TC': 8, 'Defects': [], 'Features_Missing': ['Thermoset Character Missing'], 'status': 'Rejected'}",,,2023-09-29 09:20:08,2023-09-29 14:50:08
,1,1,Circular_Plug_Pin,"{'EC': 10, 'TC': 8, 'Defects': [], 'Features_Missing': [], 'status': 'Accepted'}",,,2023-09-29 09:18:07,2023-09-29 14:48:07
,1,1,Circular_Plug_Pin,"{'EC': 10, 'TC': 8, 'Defects': [], 'Features_Missing': [], 'status': 'Accepted'}",,,2023-09-29 09:19:06,2023-09-29 14:49:06
,1,1,Circular_Plug_Pin,"{'EC': 10, 'TC': 8, 'Defects': [], 'Features_Missing': [], 'status': 'Accepted'}",,,2023-09-29 09:14:47,2023-09-29 14:44:47
,1,1,Circular_Plug_Pin,"{'EC': 10, 'TC': 8, 'Defects': [], 'Features_Missing': [], 'status': 'Accepted'}",,,2023-09-29 09:15:53,2023-09-29 14:45:53
,1,1,Circular_Plug_Pin,"{'EC': 10, 'TC': 8, 'Defects': [], 'Features_Missing': [], 'status': 'Accepted'}",,,2023-09-29 08:51:13,2023-09-29 14:21:13
,1,1,Circular_Plug_Pin,"{'EC': 10, 'TC': 8, 'Defects': [], 'Features_Missing': [], 'status': 'Accepted'}",,,2023-09-29 08:52:02,2023-09-29 14:22:02
