OPERATOR_NAME,WORK_ORDER-ID,PART_ID,PART,INSPECTION_RESULTS,FLAG_MESSAGE,IS_INSPECTION_FLAGGED,CREADTED_AT,TIME_STAMP
vinayaka,2,1,Receptacle_Socket,"{'EC': 10, 'TC': 8, 'Defects': [], 'Features_Missing': [], 'status': 'Accepted'}",,,2023-09-30 08:04:20,2023-09-30 13:34:20
vinayaka,2,1,Receptacle_Socket,"{'EC': 10, 'TC': 8, 'Defects': [], 'Features_Missing': [], 'status': 'Accepted'}",,,2023-09-30 08:05:31,2023-09-30 13:35:31
