OPERATOR_NAME,WORK_ORDER-ID,PART_ID,PART,INSPECTION_RESULTS,FLAG_MESSAGE,IS_INSPECTION_FLAGGED,CREADTED_AT,TIME_STAMP
vinayaka,2,1,Receptacle_Socket,"{'EC': 10, 'TC': 8, 'Defects': [], 'Features_Missing': [], 'status': 'Accepted'}",,,2023-09-30 08:04:20,2023-09-30 13:34:20
vinayaka,2,1,Receptacle_Socket,"{'EC': 10, 'TC': 8, 'Defects': [], 'Features_Missing': [], 'status': 'Accepted'}",,,2023-09-30 08:05:31,2023-09-30 13:35:31
vinayaka,WORK123,1,plug,"{'EC': 10, 'TC': 8, 'Defects': [], 'Features_Missing': [], 'status': 'Accepted'}",,,2023-09-29 14:16:26,2023-09-29 19:46:26
vinayaka,WORK123,1,plug,"{'EC': 10, 'TC': 8, 'Defects': [], 'Features_Missing': [], 'status': 'Accepted'}",,,2023-09-29 14:17:07,2023-09-29 19:47:07
vinayaka,WORK123,1,plug,"{'EC': 10, 'TC': 8, 'Defects': [], 'Features_Missing': [], 'status': 'Accepted'}",,,2023-09-29 14:17:18,2023-09-29 19:47:18
vinayaka,WORK123,1,plug,"{'EC': 10, 'TC': 8, 'Defects': [], 'Features_Missing': [], 'status': 'Accepted'}",,,2023-09-29 14:17:33,2023-09-29 19:47:33
vinayaka,WORK123,1,plug,"{'EC': 10, 'TC': 8, 'Defects': [], 'Features_Missing': [], 'status': 'Accepted'}",,,2023-09-29 16:44:22,2023-09-29 22:14:22
vinayaka,WORK123,1,plug,"{'EC': 10, 'TC': 8, 'Defects': [], 'Features_Missing': [], 'status': 'Accepted'}",,,2023-09-29 16:44:38,2023-09-29 22:14:38
,1,1,Receptacle_Socket,"{'EC': 10, 'TC': 8, 'Defects': [], 'Features_Missing': [], 'status': 'Accepted'}",,,2023-09-29 14:14:04,2023-09-29 19:44:04
,1,1,Receptacle_Socket,"{'EC': 10, 'TC': 8, 'Defects': [], 'Features_Missing': [], 'status': 'Accepted'}",,,2023-09-29 14:14:12,2023-09-29 19:44:12
,1,1,Circular_Plug_Pin,"{'EC': 10, 'TC': 8, 'Defects': [], 'Features_Missing': ['Thermoset Character Missing'], 'status': 'Rejected'}",a,True,2023-09-29 09:32:32,2023-09-29 15:02:32
,1,1,Circular_Plug_Pin,"{'EC': 10, 'TC': 8, 'Defects': [], 'Features_Missing': ['Thermoset Character Missing'], 'status': 'Rejected'}",j,True,2023-09-29 09:35:03,2023-09-29 15:05:03
,1,1,Circular_Plug_Pin,"{'EC': 10, 'TC': 8, 'Defects': [], 'Features_Missing': ['Thermoset Character Missing'], 'status': 'Rejected'}",,,2023-09-29 09:43:30,2023-09-29 15:13:30
,1,1,Circular_Plug_Pin,"{'EC': 10, 'TC': 8, 'Defects': [], 'Features_Missing': ['Thermoset Character Missing'], 'status': 'Rejected'}",,,2023-09-29 09:50:39,2023-09-29 15:20:39
,1,1245,Receptacle_Socket,"{'EC': 10, 'TC': 8, 'Defects': [], 'Features_Missing': ['Thermoset Character Missing'], 'status': 'Rejected'}",,,2023-09-29 14:13:18,2023-09-29 19:43:18
,1,1,Circular_Plug_Pin,"{'EC': 10, 'TC': 8, 'Defects': [], 'Features_Missing': ['Thermoset Character Missing'], 'status': 'Rejected'}",,,2023-09-29 09:20:08,2023-09-29 14:50:08
,1,1,Circular_Plug_Pin,"{'EC': 10, 'TC': 8, 'Defects': [], 'Features_Missing': [], 'status': 'Accepted'}",,,2023-09-29 09:18:07,2023-09-29 14:48:07
,1,1,Circular_Plug_Pin,"{'EC': 10, 'TC': 8, 'Defects': [], 'Features_Missing': [], 'status': 'Accepted'}",,,2023-09-29 09:19:06,2023-09-29 14:49:06
,1,1,Circular_Plug_Pin,"{'EC': 10, 'TC': 8, 'Defects': [], 'Features_Missing': [], 'status': 'Accepted'}",,,2023-09-29 09:14:47,2023-09-29 14:44:47
,1,1,Circular_Plug_Pin,"{'EC': 10, 'TC': 8, 'Defects': [], 'Features_Missing': [], 'status': 'Accepted'}",,,2023-09-29 09:15:53,2023-09-29 14:45:53
,1,1,Circular_Plug_Pin,"{'EC': 10, 'TC': 8, 'Defects': [], 'Features_Missing': [], 'status': 'Accepted'}",,,2023-09-29 08:51:13,2023-09-29 14:21:13
,1,1,Circular_Plug_Pin,"{'EC': 10, 'TC': 8, 'Defects': [], 'Features_Missing': [], 'status': 'Accepted'}",,,2023-09-29 08:52:02,2023-09-29 14:22:02
,1,1,Circular_Plug_Pin,"{'EC': 10, 'TC': 8, 'Defects': [], 'Features_Missing': ['Elestromer Character Missing', 'Thermoset Character Missing'], 'status': 'Rejected'}",,,2023-09-27 11:37:46,2023-09-27 17:07:46
,1,1,Circular_Plug_Pin,"{'EC': 10, 'TC': 8, 'Defects': [], 'Features_Missing': ['Elestromer Character Missing', 'Thermoset Character Missing'], 'status': 'Rejected'}",,,2023-09-27 10:51:45,2023-09-27 16:21:45
,1,1,Circular_Plug_Pin,"{'EC': 10, 'TC': 8, 'Defects': [], 'Features_Missing': ['Elestromer Character Missing', 'Thermoset Character Missing'], 'status': 'Rejected'}",,,2023-09-27 10:51:53,2023-09-27 16:21:53
,1,1,Circular_Plug_Pin,"{'EC': 10, 'TC': 8, 'Defects': [], 'Features_Missing': ['Elestromer Character Missing', 'Thermoset Character Missing'], 'status': 'Rejected'}",,,2023-09-27 10:52:07,2023-09-27 16:22:07
,1,1,Circular_Plug_Pin,"{'EC': 10, 'TC': 8, 'Defects': [], 'Features_Missing': ['Elestromer Character Missing', 'Thermoset Character Missing'], 'status': 'Rejected'}",,,2023-09-27 10:52:12,2023-09-27 16:22:12
,1,1,Circular_Plug_Pin,"{'EC': 10, 'TC': 8, 'Defects': [], 'Features_Missing': ['Elestromer Character Missing', 'Thermoset Character Missing'], 'status': 'Rejected'}",cheking from operator,False,2023-09-27 11:06:26,2023-09-27 16:36:26
,1,1,Circular_Plug_Pin,"{'EC': 10, 'TC': 8, 'Defects': [], 'Features_Missing': ['Elestromer Character Missing', 'Thermoset Character Missing'], 'status': 'Rejected'}",all the best,False,2023-09-27 11:18:58,2023-09-27 16:48:58
,1,1,Circular_Plug_Pin,"{'EC': 10, 'TC': 8, 'Defects': [], 'Features_Missing': ['Elestromer Character Missing', 'Thermoset Character Missing'], 'status': 'Rejected'}",Vinayak Sume iro Gutu ,True,2023-09-27 11:19:49,2023-09-27 16:49:49
,1,1,Circular_Plug_Pin,"{'EC': 10, 'TC': 8, 'Defects': [], 'Features_Missing': [], 'status': 'Accepted'}",,,2023-09-27 06:58:53,2023-09-27 12:28:53
,1,1,Circular_Plug_Pin,"{'EC': 10, 'TC': 8, 'Defects': [], 'Features_Missing': [], 'status': 'Accepted'}",,,2023-09-27 06:59:07,2023-09-27 12:29:07
,1,1,Circular_Plug_Pin,"{'EC': 10, 'TC': 8, 'Defects': [], 'Features_Missing': [], 'status': 'Accepted'}",,,2023-09-27 07:09:41,2023-09-27 12:39:41
,1,1,Circular_Plug_Pin,"{'EC': 10, 'TC': 8, 'Defects': [], 'Features_Missing': [], 'status': 'Accepted'}",,,2023-09-27 07:09:51,2023-09-27 12:39:51
,1,1,Circular_Plug_Pin,"{'EC': 10, 'TC': 8, 'Defects': [], 'Features_Missing': [], 'status': 'Accepted'}",dsd,True,2023-09-27 07:14:21,2023-09-27 12:44:21
,1,1,Circular_Plug_Pin,"{'EC': 10, 'TC': 8, 'Defects': [], 'Features_Missing': [], 'status': 'Accepted'}",,,2023-09-27 06:17:25,2023-09-27 11:47:25
,1,1,Circular_Plug_Pin,"{'EC': 10, 'TC': 8, 'Defects': [], 'Features_Missing': ['Thermoset Character Missing'], 'status': 'Rejected'}",Thernosta is not predicted,True,2023-09-27 05:36:43,2023-09-27 11:06:43
,1,1,Circular_Plug_Pin,"{'EC': 10, 'TC': 8, 'Defects': [], 'Features_Missing': ['Thermoset Character Missing'], 'status': 'Rejected'}",Thermoset,True,2023-09-27 05:38:55,2023-09-27 11:08:55
,1,1,Circular_Plug_Pin,"{'EC': 10, 'TC': 8, 'Defects': [], 'Features_Missing': ['Elestromer Character Missing'], 'status': 'Rejected'}",,,2023-09-27 05:22:59,2023-09-27 10:52:59
,1,1,Circular_Plug_Pin,"{'EC': 10, 'TC': 8, 'Defects': [], 'Features_Missing': [], 'status': 'Accepted'}",,,2023-09-27 04:14:09,2023-09-27 09:44:09
,1,1,Circular_Plug_Pin,"{'EC': 10, 'TC': 8, 'Defects': [], 'Features_Missing': [], 'status': 'Accepted'}",,,2023-09-27 04:14:22,2023-09-27 09:44:22
,1,1,Circular_Plug_Pin,"{'EC': 10, 'TC': 8, 'Defects': [], 'Features_Missing': [], 'status': 'Accepted'}",,,2023-09-27 04:14:41,2023-09-27 09:44:41
,1,1,Circular_Plug_Pin,"{'EC': 10, 'TC': 8, 'Defects': [], 'Features_Missing': [], 'status': 'Accepted'}",,,2023-09-27 04:14:49,2023-09-27 09:44:49
,1,1,Circular_Plug_Pin,"{'EC': 10, 'TC': 8, 'Defects': [], 'Features_Missing': [], 'status': 'Accepted'}",,,2023-09-27 04:39:13,2023-09-27 10:09:13
,1,1,Circular_Plug_Pin,"{'EC': 10, 'TC': 8, 'Defects': [], 'Features_Missing': [], 'status': 'Accepted'}",bye,True,2023-09-26 15:58:16,2023-09-26 21:28:16
,1,1,Circular_Plug_Pin,"{'EC': 10, 'TC': 8, 'Defects': [], 'Features_Missing': [], 'status': 'Accepted'}",checking,True,2023-09-26 15:58:24,2023-09-26 21:28:24
,1,1,Circular_Plug_Pin,"{'EC': 10, 'TC': 8, 'Defects': [], 'Features_Missing': [], 'status': 'Accepted'}",time,True,2023-09-26 15:58:30,2023-09-26 21:28:30
,1,1,Circular_Plug_Pin,"{'EC': 10, 'TC': 8, 'Defects': [], 'Features_Missing': ['Elestromer Character Missing', 'Thermoset Character Missing'], 'status': 'Rejected'}",,,2023-09-26 13:49:00,2023-09-26 19:19:00
,1,1,Circular_Plug_Pin,"{'EC': 10, 'TC': 8, 'Defects': [], 'Features_Missing': ['Elestromer Character Missing', 'Thermoset Character Missing'], 'status': 'Rejected'}",,,2023-09-26 13:49:08,2023-09-26 19:19:08
,1,1,Circular_Plug_Pin,"{'EC': 10, 'TC': 8, 'Defects': [], 'Features_Missing': ['Elestromer Character Missing', 'Thermoset Character Missing'], 'status': 'Rejected'}",,,2023-09-26 13:49:15,2023-09-26 19:19:15
,1,1,Circular_Plug_Pin,"{'EC': 10, 'TC': 8, 'Defects': [], 'Features_Missing': ['Elestromer Character Missing', 'Thermoset Character Missing'], 'status': 'Rejected'}",,,2023-09-26 13:49:25,2023-09-26 19:19:25
,1,1,Circular_Plug_Pin,"{'EC': 10, 'TC': 8, 'Defects': [], 'Features_Missing': ['Elestromer Character Missing', 'Thermoset Character Missing'], 'status': 'Rejected'}",,,2023-09-26 13:49:32,2023-09-26 19:19:32
,1,1,Circular_Plug_Pin,"{'EC': 10, 'TC': 8, 'Defects': [], 'Features_Missing': [], 'status': 'Accepted'}",,,2023-09-26 13:47:49,2023-09-26 19:17:49
,1,1,Circular_Plug_Pin,"{'EC': 10, 'TC': 8, 'Defects': [], 'Features_Missing': [], 'status': 'Accepted'}",,,2023-09-26 13:47:59,2023-09-26 19:17:59
,1,1,Circular_Plug_Pin,"{'EC': 10, 'TC': 8, 'Defects': [], 'Features_Missing': [], 'status': 'Accepted'}",,,2023-09-26 13:48:07,2023-09-26 19:18:07
,1,1,Circular_Plug_Pin,"{'EC': 10, 'TC': 8, 'Defects': [], 'Features_Missing': [], 'status': 'Accepted'}",,,2023-09-26 13:48:14,2023-09-26 19:18:14
,1,1,Circular_Plug_Pin,"{'EC': 10, 'TC': 8, 'Defects': [], 'Features_Missing': [], 'status': 'Accepted'}",,,2023-09-26 13:48:20,2023-09-26 19:18:20
